{
	"id": "co.clarika.count",
	"name": "co.clarika.count",
	"description" : "",
	"author": "",
	"version": "1.0",
	"copyright":"Copyright (c) 2016",
	"license":"Public Domain",
	"min-alloy-version": "1.0",
	"min-titanium-version":"2.1",
	"tags":"",
	"platforms":"ios,android"
}